Interpolate monthly data to weekly data • VEinterpolation
…
Get summary of VE samples

ve_summary <- best_model$model$generate_VE_summary(
    periods_starts = sample_8_weeks_data$date_min,
    periods_ends = sample_8_weeks_data$date_max
)

print(ve_summary)
#> # A tibble: 56 × 6
#>    period_start VE_median VE_mean  VE_sd VE_quantile_025 VE_quantile_975
#>    <date>           <dbl>   <dbl>  <dbl>           <dbl>           <dbl>
#>  1 2023-10-01       0.711   0.706 0.0570           0.585           0.806
#>  2 2023-10-08       0.687   0.682 0.0565           0.552           0.786
#>  3 2023-10-15       0.662   0.656 0.0610           0.519           0.754
#>  4 2023-10-22       0.636   0.632 0.0649           0.486           0.747
#>  5 2023-10-29       0.616   0.609 0.0651           0.456           0.722
#>  6 2023-11-05       0.593   0.588 0.0690           0.436           0.711
#>  7 2023-11-12       0.571   0.568 0.0681           0.416           0.687
#>  8 2023-11-19       0.552   0.544 0.0753           0.379           0.673
#>  9 2023-11-26       0.532   0.528 0.0707           0.361           0.652
#> 10 2023-12-03       0.509   0.507 0.0783           0.334           0.651
#> # ℹ 46 more rows
…
